…
``` r
combined_df_with_housename
```

    ## # A tibble: 322 × 12
    ##    HouseID HouseSize Name   NetWorth Occupation   Age NumChildren Town  HouseNum
    ##      <dbl> <chr>     <chr>     <dbl> <chr>      <dbl>       <dbl> <chr>    <int>
    ##  1     175 Small     Uwe R…     5234 Barista       54           4 Vardo        4
    ##  2     175 Small     Elena…     5294 Midwife       54           2 Vardo        4
    ##  3     289 Small     Robin…     2046 <NA>          46           0 Vardo        4
    ##  4     289 Small     Sophi…     2047 Barista       36           2 Vardo        4
    ##  5     289 Small     Mia S…       44 Student       16           0 Vardo        4
    ##  6     289 Small     Flori…       NA Student       13           0 Vardo        4
    ##  7     501 Small     Leira…     1449 <NA>          23           2 Vardo        4
    ##  8     501 Small     Brayd…     1434 Confectio…    23           2 Vardo        4
    ##  9     501 Small     Britt…       NA <NA>           3           0 Vardo        4
    ## 10     501 Small     Daich…       NA 1 year old    NA           0 Vardo        4
    ## # ℹ 312 more rows
    ## # ℹ 3 more variables: TownCode <int>, HouseID_padded <chr>, StaggeredID <dbl>
…
df_normalize_long
```

    ## # A tibble: 40 × 6
    ##    Characteristic NetWorthBracket    Total_Count LowerBound UpperBound Midpoint
    ##    <chr>          <chr>                    <dbl>      <dbl>      <dbl>    <dbl>
    ##  1 All families   Under $5,000              1927          0       5.00     2.50
    ##  2 All families   $5,000 to $9,999           719          5      10.0      7.50
    ##  3 All families   $10,000 to $14,999        1155         10      15.0     12.5 
    ##  4 All families   $15,000 to $19,999        1365         15      20.0     17.5 
    ##  5 All families   $20,000 to $24,999        1738         20      25.0     22.5 
    ##  6 All families   $25,000 to $29,999        2021         25      30.0     27.5 
    ##  7 All families   $30,000 to $34,999        2388         30      35.0     32.5 
    ##  8 All families   $35,000 to $39,999        2518         35      40.0     37.5 
    ##  9 All families   $40,000 to $44,999        2338         40      45.0     42.5 
    ## 10 All families   $45,000 to $49,999        2598         45      50.0     47.5 
    ## # ℹ 30 more rows
…
df_children_long
```

    ## # A tibble: 120 × 13
    ##    Characteristic.x   NetWorthBracket.x Count LowerBound.x UpperBound.x Midpoint
    ##    <chr>              <chr>             <dbl>        <dbl>        <dbl>    <dbl>
    ##  1 No related childr… Under $5,000        819            0         5.00     2.50
    ##  2 No related childr… $5,000 to $9,999    301            5        10.0      7.50
    ##  3 No related childr… $10,000 to $14,9…   547           10        15.0     12.5 
    ##  4 No related childr… $15,000 to $19,9…   668           15        20.0     17.5 
    ##  5 No related childr… $20,000 to $24,9…   875           20        25.0     22.5 
    ##  6 No related childr… $25,000 to $29,9…  1100           25        30.0     27.5 
    ##  7 No related childr… $30,000 to $34,9…  1238           30        35.0     32.5 
    ##  8 No related childr… $35,000 to $39,9…  1403           35        40.0     37.5 
    ##  9 No related childr… $40,000 to $44,9…  1286           40        45.0     42.5 
    ## 10 No related childr… $45,000 to $49,9…  1542           45        50.0     47.5 
    ## # ℹ 110 more rows
    ## # ℹ 7 more variables: Characteristic.y <chr>, NetWorthBracket.y <chr>,
    ## #   Total_Count <dbl>, LowerBound.y <dbl>, UpperBound.y <dbl>,
    ## #   Proportion <dbl>, Rate_per_1000 <dbl>
…
df_houseNum_long 
```

    ## # A tibble: 240 × 13
    ##    Characteristic.x NetWorthBracket.x  Count LowerBound.x UpperBound.x Midpoint
    ##    <chr>            <chr>              <dbl>        <dbl>        <dbl>    <dbl>
    ##  1 Two people       Under $5,000        1076            0         5.00     2.50
    ##  2 Two people       $5,000 to $9,999     375            5        10.0      7.50
    ##  3 Two people       $10,000 to $14,999   687           10        15.0     12.5 
    ##  4 Two people       $15,000 to $19,999   815           15        20.0     17.5 
    ##  5 Two people       $20,000 to $24,999  1024           20        25.0     22.5 
    ##  6 Two people       $25,000 to $29,999  1162           25        30.0     27.5 
    ##  7 Two people       $30,000 to $34,999  1374           30        35.0     32.5 
    ##  8 Two people       $35,000 to $39,999  1461           35        40.0     37.5 
    ##  9 Two people       $40,000 to $44,999  1291           40        45.0     42.5 
    ## 10 Two people       $45,000 to $49,999  1502           45        50.0     47.5 
    ## # ℹ 230 more rows
    ## # ℹ 7 more variables: Characteristic.y <chr>, NetWorthBracket.y <chr>,
    ## #   Total_Count <dbl>, LowerBound.y <dbl>, UpperBound.y <dbl>,
    ## #   Proportion <dbl>, Rate_per_1000 <dbl>
…
