…
## Vis

<!-- ------------------------- -->

### **q5** Compare the *arrest rate*—the fraction of total cases in which the subject was arrested—across different factors. Create as many visuals (or tables) as you need, but make sure to check the trends across all of the `subject` variables. Answer the questions under *observations* below.

(Note: Create as many chunks and visuals as you need)

**Observations**:

``` r
df_data
```

    ## # A tibble: 3,416,238 × 24
    ##    raw_row_number date       location      county_name  subject_age subject_race
    ##    <chr>          <date>     <chr>         <chr>              <int> <fct>       
    ##  1 1              2007-06-06 MIDDLEBOROUGH Plymouth Co…          33 white       
    ##  2 2              2007-06-07 SEEKONK       Bristol Cou…          36 white       
    ##  3 3              2007-06-07 MEDFORD       Middlesex C…          56 white       
    ##  4 4              2007-06-07 MEDFORD       Middlesex C…          37 white       
    ##  5 5              2007-06-07 EVERETT       Middlesex C…          22 hispanic    
    ##  6 6              2007-06-07 MEDFORD       Middlesex C…          34 white       
    ##  7 7              2007-06-07 SOMERVILLE    Middlesex C…          54 hispanic    
    ##  8 8              2007-06-07 HOPKINTON     Middlesex C…          31 hispanic    
    ##  9 9              2007-06-07 SOMERVILLE    Middlesex C…          21 white       
    ## 10 10             2007-06-06 BARNSTABLE    Barnstable …          56 white       
    ## # ℹ 3,416,228 more rows
    ## # ℹ 18 more variables: subject_sex <fct>, type <fct>, arrest_made <lgl>,
    ## #   citation_issued <lgl>, warning_issued <lgl>, outcome <fct>,
    ## #   contraband_found <lgl>, contraband_drugs <lgl>, contraband_weapons <lgl>,
    ## #   contraband_alcohol <lgl>, contraband_other <lgl>, frisk_performed <lgl>,
    ## #   search_conducted <lgl>, search_basis <fct>, reason_for_stop <chr>,
    ## #   vehicle_type <chr>, vehicle_registration_state <fct>, raw_Race <chr>
…
